\relax 
\providecommand\hyper@newdestlabel[2]{}
\providecommand\zref@newlabel[2]{}
\providecommand\HyperFirstAtBeginDocument{\AtBeginDocument}
\HyperFirstAtBeginDocument{\ifx\hyper@anchor\@undefined
\global\let\oldcontentsline\contentsline
\gdef\contentsline#1#2#3#4{\oldcontentsline{#1}{#2}{#3}}
\global\let\oldnewlabel\newlabel
\gdef\newlabel#1#2{\newlabelxx{#1}#2}
\gdef\newlabelxx#1#2#3#4#5#6{\oldnewlabel{#1}{{#2}{#3}}}
\AtEndDocument{\ifx\hyper@anchor\@undefined
\let\contentsline\oldcontentsline
\let\newlabel\oldnewlabel
\fi}
\fi}
\global\let\hyper@last\relax 
\gdef\HyperFirstAtBeginDocument#1{#1}
\providecommand\HyField@AuxAddToFields[1]{}
\providecommand\HyField@AuxAddToCoFields[2]{}
\providecommand\babel@aux[2]{}
\@nameuse{bbl@beforestart}
\babel@aux{lithuanian}{}
\@writefile{toc}{\contentsline {section}{Santrauka}{3}{section*.1}\protected@file@percent }
\@writefile{toc}{\contentsline {section}{Summary}{4}{section*.2}\protected@file@percent }
\citation{DEVICES}
\newlabel{sec:intro}{{}{5}{\keyWordIntroduction }{section*.3}{}}
\@writefile{toc}{\contentsline {section}{\nameref  {sec:intro}}{5}{section*.3}\protected@file@percent }
\citation{DISLEKSIJA}
\citation{TTSPAULTAYLOR}
\@writefile{toc}{\contentsline {section}{\numberline {1}Balso sintezavimas}{6}{section.1}\protected@file@percent }
\citation{MULTILINGUALTTS}
\citation{VLKKSUTRUMPINIMAI}
\citation{SPROATBLACK}
\@writefile{toc}{\contentsline {subsection}{\numberline {1.1}Balso sintezatorius}{7}{subsection.1.1}\protected@file@percent }
\@writefile{lof}{\contentsline {figure}{\numberline {1}{\ignorespaces Sintezatoriaus veikimo schema.\relax }}{7}{figure.caption.4}\protected@file@percent }
\@writefile{toc}{\contentsline {subsection}{\numberline {1.2}Skirtumai tarp skirting\IeC {\k u} kalb\IeC {\k u} sintezatori\IeC {\k u}}{7}{subsection.1.2}\protected@file@percent }
\citation{SPROATBLACK}
\citation{LIETUVISKISINTEZATORIAI}
\citation{LIETUVISKISINTEZATORIAI2}
\citation{LIETUVIUINSTITUTAS2019}
\citation{MICROSOFTNTTS}
\@writefile{toc}{\contentsline {subsection}{\numberline {1.3}Lietuvi\IeC {\k u} kalbos sintezatoriai}{8}{subsection.1.3}\protected@file@percent }
\citation{NTTSSTRESSING}
\citation{VDUSINTEZATORIUS}
\citation{SPROATBLACK}
\citation{TEXTNORMALIZATION}
\citation{SPROATBLACK}
\@writefile{toc}{\contentsline {section}{\numberline {2}Teksto paruo\IeC {\v s}imas ir semantin\IeC {\.e}s klas\IeC {\.e}s}{10}{section.2}\protected@file@percent }
\@writefile{lot}{\contentsline {table}{\numberline {1}{\ignorespaces Nestandartini\IeC {\k u} \IeC {\v z}od\IeC {\v z}i\IeC {\k u} klasifikavimas.\relax }}{10}{table.caption.5}\protected@file@percent }
\providecommand*\caption@xref[2]{\@setref\relax\@undefined{#1}}
\newlabel{fig:NSWTaxonomy}{{1}{10}{Nestandartinių žodžių klasifikavimas.\relax }{table.caption.5}{}}
\citation{JURAFSKYMARTIN}
\@writefile{toc}{\contentsline {section}{\numberline {3}Teksto paruo\IeC {\v s}imo metodai ir algoritmai}{12}{section.3}\protected@file@percent }
\@writefile{toc}{\contentsline {subsection}{\numberline {3.1}Reguliariosios i\IeC {\v s}rai\IeC {\v s}kos}{12}{subsection.3.1}\protected@file@percent }
\citation{JURAFSKYMARTIN}
\citation{TEKSTYNAS}
\citation{SPROATBLACK}
\@writefile{lot}{\contentsline {table}{\numberline {2}{\ignorespaces Reguliari\IeC {\k u}j\IeC {\k u} i\IeC {\v s}rai\IeC {\v s}k\IeC {\k u} aliasai.\relax }}{13}{table.caption.6}\protected@file@percent }
\newlabel{fig:REAlias}{{2}{13}{Reguliariųjų išraiškų aliasai.\relax }{table.caption.6}{}}
\@writefile{toc}{\contentsline {subsection}{\numberline {3.2}Grupavimas ir registras}{13}{subsection.3.2}\protected@file@percent }
\@writefile{toc}{\contentsline {subsection}{\numberline {3.3}\IeC {\v Z}od\IeC {\v z}i\IeC {\k u} rinkiniai}{13}{subsection.3.3}\protected@file@percent }
\citation{JURAFSKYMARTIN}
\citation{TEXTNORMALIZATION}
\@writefile{toc}{\contentsline {subsection}{\numberline {3.4}Nestandartini\IeC {\k u} \IeC {\v z}od\IeC {\v z}i\IeC {\k u} su\IeC {\v z}ym\IeC {\.e}jimas}{14}{subsection.3.4}\protected@file@percent }
\@writefile{toc}{\contentsline {subsection}{\numberline {3.5}Algoritm\IeC {\k u} vertinimo kriterijai}{14}{subsection.3.5}\protected@file@percent }
\@writefile{toc}{\contentsline {subsubsection}{\numberline {3.5.1}Nestandartini\IeC {\k u} \IeC {\v z}od\IeC {\v z}i\IeC {\k u} aptikimas}{14}{subsubsection.3.5.1}\protected@file@percent }
\@writefile{toc}{\contentsline {subsubsection}{\numberline {3.5.2}Nestandartini\IeC {\k u} \IeC {\v z}od\IeC {\v z}i\IeC {\k u} semantinis klasifikavimas}{14}{subsubsection.3.5.2}\protected@file@percent }
\@writefile{toc}{\contentsline {subsubsection}{\numberline {3.5.3}Nestandartini\IeC {\k u} \IeC {\v z}od\IeC {\v z}i\IeC {\k u} i\IeC {\v s}skleidimas}{15}{subsubsection.3.5.3}\protected@file@percent }
\@writefile{toc}{\contentsline {section}{\numberline {4}Teksto paruo\IeC {\v s}imo algoritmo k\IeC {\=u}rimas VLE}{16}{section.4}\protected@file@percent }
\@writefile{toc}{\contentsline {subsection}{\numberline {4.1}Pirminis teksto sutvarkymas ir apdorojimas}{16}{subsection.4.1}\protected@file@percent }
\@writefile{lof}{\contentsline {figure}{\numberline {2}{\ignorespaces Neapdorotas VLE tekstas.\relax }}{16}{figure.caption.7}\protected@file@percent }
\newlabel{fig:VLEpradinis}{{2}{16}{Neapdorotas VLE tekstas.\relax }{figure.caption.7}{}}
\@writefile{lof}{\contentsline {figure}{\numberline {3}{\ignorespaces Sutvarkytas VLE tekstas.\relax }}{17}{figure.caption.8}\protected@file@percent }
\newlabel{fig:VLEisvalytas}{{3}{17}{Sutvarkytas VLE tekstas.\relax }{figure.caption.8}{}}
\@writefile{toc}{\contentsline {subsection}{\numberline {4.2}Rankinis nestandartini\IeC {\k u} \IeC {\v z}od\IeC {\v z}i\IeC {\k u} i\IeC {\v s}rinkimas ir klasifikavimas}{17}{subsection.4.2}\protected@file@percent }
\@writefile{lof}{\contentsline {figure}{\numberline {4}{\ignorespaces Sutvarkytas VLE tekstas.\relax }}{17}{figure.caption.9}\protected@file@percent }
\newlabel{fig:manual_lentele}{{4}{17}{Sutvarkytas VLE tekstas.\relax }{figure.caption.9}{}}
\@writefile{toc}{\contentsline {subsection}{\numberline {4.3}Trumpini\IeC {\k u} \IeC {\v z}odynas}{18}{subsection.4.3}\protected@file@percent }
\@writefile{toc}{\contentsline {subsection}{\numberline {4.4}Teksto paruo\IeC {\v s}imo algoritmai}{18}{subsection.4.4}\protected@file@percent }
\@writefile{toc}{\contentsline {subsubsection}{\numberline {4.4.1}Trumpiniai}{18}{subsubsection.4.4.1}\protected@file@percent }
\@writefile{toc}{\contentsline {subsubsection}{\numberline {4.4.2}Am\IeC {\v z}iai}{18}{subsubsection.4.4.2}\protected@file@percent }
\@writefile{toc}{\contentsline {subsubsection}{\numberline {4.4.3}Rom\IeC {\.e}ni\IeC {\v s}ki skai\IeC {\v c}iai}{18}{subsubsection.4.4.3}\protected@file@percent }
\@writefile{toc}{\contentsline {subsubsection}{\numberline {4.4.4}Datos}{19}{subsubsection.4.4.4}\protected@file@percent }
\@writefile{toc}{\contentsline {subsubsection}{\numberline {4.4.5}Skai\IeC {\v c}iai}{19}{subsubsection.4.4.5}\protected@file@percent }
\@writefile{toc}{\contentsline {subsubsection}{\numberline {4.4.6}Matavimo vienetai}{19}{subsubsection.4.4.6}\protected@file@percent }
\@writefile{toc}{\contentsline {subsubsection}{\numberline {4.4.7}Specialieji simboliai}{19}{subsubsection.4.4.7}\protected@file@percent }
\@writefile{toc}{\contentsline {section}{\numberline {5}Algoritmo \IeC {\k i}vertinimas ir rezultatas}{20}{section.5}\protected@file@percent }
\@writefile{lot}{\contentsline {table}{\numberline {3}{\ignorespaces Algoritmo rezultatai.\relax }}{20}{table.caption.10}\protected@file@percent }
\newlabel{fig:alogirtmo_rezultatai}{{3}{20}{Algoritmo rezultatai.\relax }{table.caption.10}{}}
\newlabel{sec:conclu}{{5}{21}{\keyWordConclusions }{section*.11}{}}
\@writefile{toc}{\contentsline {section}{\nameref  {sec:conclu}}{21}{section*.11}\protected@file@percent }
\newlabel{sec:future}{{5}{22}{Ateities tyrimų planas}{section*.12}{}}
\@writefile{toc}{\contentsline {section}{\nameref  {sec:future}}{22}{section*.12}\protected@file@percent }
\bibstyle{plain}
\bibdata{literatureSources}
\bibcite{NTTSSTRESSING}{1}
\bibcite{TEXTNORMALIZATION}{2}
\bibcite{DISLEKSIJA}{3}
\bibcite{LIETUVIUINSTITUTAS2019}{4}
\bibcite{LIETUVISKISINTEZATORIAI}{5}
\bibcite{VLKKSUTRUMPINIMAI}{6}
\bibcite{DEVICES}{7}
\bibcite{JURAFSKYMARTIN}{8}
\bibcite{MICROSOFTNTTS}{9}
\bibcite{SPROATBLACK}{10}
\bibcite{TTSPAULTAYLOR}{11}
\bibcite{VDUSINTEZATORIUS}{12}
\bibcite{TEKSTYNAS}{13}
\bibcite{LIETUVISKISINTEZATORIAI2}{14}
\bibcite{MULTILINGUALTTS}{15}
\@writefile{toc}{\contentsline {section}{Literat\IeC {\=u}ros \IeC {\v s}altiniai}{23}{section*.13}\protected@file@percent }
\gdef \@abspage@last{23}
