^D:\PIJAUS\MAG_BAK\ALBERTAS_GRINKEVICIUS\REGEX_EXAMPLE1_ISFAILO_NAV\REGEX_EXAMPLE1\STDAFX.CPP
D:\PIJAUS\MAG_BAK\ALBERTAS_GRINKEVICIUS\REGEX_EXAMPLE1_ISFAILO_NAV\REGEX_EXAMPLE1\X64\DEBUG\REGEX_EXAMPLE1.PCH
D:\PIJAUS\MAG_BAK\ALBERTAS_GRINKEVICIUS\REGEX_EXAMPLE1_ISFAILO_NAV\REGEX_EXAMPLE1\X64\DEBUG\VC142.PDB
D:\PIJAUS\MAG_BAK\ALBERTAS_GRINKEVICIUS\REGEX_EXAMPLE1_ISFAILO_NAV\REGEX_EXAMPLE1\X64\DEBUG\VC142.IDB
D:\PIJAUS\MAG_BAK\ALBERTAS_GRINKEVICIUS\REGEX_EXAMPLE1_ISFAILO_NAV\REGEX_EXAMPLE1\X64\DEBUG\STDAFX.OBJ
^D:\PIJAUS\MAG_BAK\ALBERTAS_GRINKEVICIUS\REGEX_EXAMPLE1_ISFAILO_NAV\REGEX_EXAMPLE1\REGEX_EXAMPLE1.CPP
D:\PIJAUS\MAG_BAK\ALBERTAS_GRINKEVICIUS\REGEX_EXAMPLE1_ISFAILO_NAV\REGEX_EXAMPLE1\X64\DEBUG\VC142.PDB
D:\PIJAUS\MAG_BAK\ALBERTAS_GRINKEVICIUS\REGEX_EXAMPLE1_ISFAILO_NAV\REGEX_EXAMPLE1\X64\DEBUG\VC142.IDB
D:\PIJAUS\MAG_BAK\ALBERTAS_GRINKEVICIUS\REGEX_EXAMPLE1_ISFAILO_NAV\REGEX_EXAMPLE1\X64\DEBUG\REGEX_EXAMPLE1.OBJ
