^D:\PIJAUS\MAG_BAK\ALBERTAS_GRINKEVICIUS\REGEX_EXAMPLE1_ISFAILO_NAV\REGEX_EXAMPLE1\X64\DEBUG\REGEX_EXAMPLE1.OBJ|D:\PIJAUS\MAG_BAK\ALBERTAS_GRINKEVICIUS\REGEX_EXAMPLE1_ISFAILO_NAV\REGEX_EXAMPLE1\X64\DEBUG\STDAFX.OBJ
D:\PIJAUS\MAG_BAK\ALBERTAS_GRINKEVICIUS\REGEX_EXAMPLE1_ISFAILO_NAV\REGEX_EXAMPLE1\X64\DEBUG\REGEX_EXAMPLE1.ILK
D:\PIJAUS\MAG_BAK\ALBERTAS_GRINKEVICIUS\REGEX_EXAMPLE1_ISFAILO_NAV\X64\DEBUG\REGEX_EXAMPLE1.EXE
D:\PIJAUS\MAG_BAK\ALBERTAS_GRINKEVICIUS\REGEX_EXAMPLE1_ISFAILO_NAV\X64\DEBUG\REGEX_EXAMPLE1.PDB
