^D:\PIJAUS\MAG_BAK\ALBERTAS_GRINKEVICIUS\REGEX_EXAMPLE1_ISFAILO_NAV\REGEX_EXAMPLE1\X64\DEBUG\REGEX_EXAMPLE1.OBJ|D:\PIJAUS\MAG_BAK\ALBERTAS_GRINKEVICIUS\REGEX_EXAMPLE1_ISFAILO_NAV\REGEX_EXAMPLE1\X64\DEBUG\STDAFX.OBJ
/OUT:"D:\PIJAUS\MAG_BAK\ALBERTAS_GRINKEVICIUS\REGEX_EXAMPLE1_ISFAILO_NAV\X64\DEBUG\REGEX_EXAMPLE1.EXE" /INCREMENTAL /ILK:"X64\DEBUG\REGEX_EXAMPLE1.ILK" /NOLOGO KERNEL32.LIB USER32.LIB GDI32.LIB WINSPOOL.LIB COMDLG32.LIB ADVAPI32.LIB SHELL32.LIB OLE32.LIB OLEAUT32.LIB UUID.LIB ODBC32.LIB ODBCCP32.LIB /MANIFEST /MANIFESTUAC:"level='asInvoker' uiAccess='false'" /manifest:embed /DEBUG /PDB:"D:\PIJAUS\MAG_BAK\ALBERTAS_GRINKEVICIUS\REGEX_EXAMPLE1_ISFAILO_NAV\X64\DEBUG\REGEX_EXAMPLE1.PDB" /SUBSYSTEM:CONSOLE /TLBID:1 /DYNAMICBASE /NXCOMPAT /IMPLIB:"D:\PIJAUS\MAG_BAK\ALBERTAS_GRINKEVICIUS\REGEX_EXAMPLE1_ISFAILO_NAV\X64\DEBUG\REGEX_EXAMPLE1.LIB" /MACHINE:X64 X64\DEBUG\REGEX_EXAMPLE1.OBJ
X64\DEBUG\STDAFX.OBJ
